
[
  {
    "action": "news_feed",
    "title": "Newsfeed",
    "icon": "mdi-access-point",
    "active": true,
    "items": [
      {"title":"Filters"},
      {"title": "Bookmarks"},
      {"title":  "Permissions"},
      {"title":  "Lists"},
      {"title":  "Go To My Newsfeed"}
    ]
  },
  {
    "action": "profile_settings",
    "title": "Profile",
    "icon": "mdi-account",
    "items": [
      {"title":  "View My Profile"},
      {"title":"Profile Designer"},
      {"title": "Security & Permissions"},
      {"title":  "Edit Profile Info"},
      {"title":  "Edit Company Profile"}

    ]
  }
]